Limpieza de datos
…
Con el siguiente cdigo calculamos la distancia al vecino ms cercano.

data_estandarizada %>% 
  dist %>% as.matrix() %>% add(diag(Inf, ncol(.))) %>% 
  apply(1, min) %>% enframe() %>% arrange(desc(value))

## # A tibble: 506 x 2
##    name  value
##    <chr> <dbl>
##  1 365    3.65
##  2 284    3.33
##  3 381    3.24
##  4 406    3.24
##  5 419    3.17
##  6 415    3.02
##  7 368    2.92
##  8 156    2.61
##  9 103    2.61
## 10 254    2.35
## # ... with 496 more rows
…
